# (c) PanDishPan 2017

newmtl stick01_0
	Ns 0.000000
	Ni 1.500000
	d 1.000000
	Tr 0.000000
	Tf 1.000000 1.000000 1.000000 
	illum 2
	Ka 1.000000 1.000000 1.000000
	Kd 1.000000 1.000000 1.000000
	Ks 0.000000 0.000000 0.000000
	Ke 0.000000 0.000000 0.000000
	map_Kd stick01_1001.tif

newmtl stick01_1
	Ns 0.000000
	Ni 1.500000
	d 1.000000
	Tr 0.000000
	Tf 1.000000 1.000000 1.000000 
	illum 2
	Ka 1.000000 1.000000 1.000000
	Kd 1.000000 1.000000 1.000000
	Ks 0.000000 0.000000 0.000000
	Ke 0.000000 0.000000 0.000000
	map_Kd stick01_1002.tif

newmtl stick01_2
	Ns 0.000000
	Ni 1.500000
	d 1.000000
	Tr 0.000000
	Tf 1.000000 1.000000 1.000000 
	illum 2
	Ka 1.000000 1.000000 1.000000
	Kd 1.000000 1.000000 1.000000
	Ks 0.000000 0.000000 0.000000
	Ke 0.000000 0.000000 0.000000
	map_Kd stick01_1003.tif
